[15508.24175657] [-244.42307687] [1.08516483] |94.26098903745006
[15508.24175657] [-244.42307687] [1.08516483] |94.26098903745006
[15508.24175657] [-244.42307687] [1.08516483] |94.26098903745006
[15508.24175657] [-244.42307687] [1.08516483] |94.26098903745006
[15508.24175657] [-244.42307687] [1.08516483] |94.26098903745006
